%YAML 1.1
%TAG !u! tag:unity3d.com,2011:
--- !u!114 &11400000
MonoBehaviour:
  m_ObjectHideFlags: 0
  m_CorrespondingSourceObject: {fileID: 0}
  m_PrefabInstance: {fileID: 0}
  m_PrefabAsset: {fileID: 0}
  m_GameObject: {fileID: 0}
  m_Enabled: 1
  m_EditorHideFlags: 0
  m_Script: {fileID: 11500000, guid: e53045c7cf61e7747b1d78791ff6ca77, type: 3}
  m_Name: CapsulePlayerControllerSettingsPreset-Preset4
  m_EditorClassIdentifier: 
  RotationSpeed: 270
  DirectionalSpeed: 7
  DirectionalSprintSpeed: 10
  ForwardKey: 63
  BackwardKey: 64
  TurnLeftKey: 61
  TurnRightKey: 62
  SprintKey: 52
  InteractionKey: 2
